Modulo2345Counter/simulation/qsim/Modulo2345Counter.msim.vcd
$comment
	File created using the following command:
		vcd file Modulo2345Counter.msim.vcd -direction
$end
$date
	Mon Nov 11 20:17:50 2024
$end
$version
	ModelSim Version 2020.1
$end
$timescale
	1ps
$end

$scope module eight_count_vhd_vec_tst $end
$var wire 1 ! Cl $end
$var wire 1 " CLk $end
$var wire 1 # EN $end
$var wire 1 $ Pr $end
$var wire 1 % Q [2] $end
$var wire 1 & Q [1] $end
$var wire 1 ' Q [0] $end
$var wire 1 ( Ud $end

$scope module i1 $end
$var wire 1 ) gnd $end
$var wire 1 * vcc $end
$var wire 1 + unknown $end
$var wire 1 , devoe $end
$var wire 1 - devclrn $end
$var wire 1 . devpor $end
$var wire 1 / ww_devoe $end
$var wire 1 0 ww_devclrn $end
$var wire 1 1 ww_devpor $end
$var wire 1 2 ww_EN $end
$var wire 1 3 ww_Ud $end
$var wire 1 4 ww_CLk $end
$var wire 1 5 ww_Cl $end
$var wire 1 6 ww_Pr $end
$var wire 1 7 ww_Q [2] $end
$var wire 1 8 ww_Q [1] $end
$var wire 1 9 ww_Q [0] $end
$var wire 1 : \CLk~inputclkctrl_INCLK_bus\ [3] $end
$var wire 1 ; \CLk~inputclkctrl_INCLK_bus\ [2] $end
$var wire 1 < \CLk~inputclkctrl_INCLK_bus\ [1] $end
$var wire 1 = \CLk~inputclkctrl_INCLK_bus\ [0] $end
$var wire 1 > \Q[0]~output_o\ $end
$var wire 1 ? \Q[1]~output_o\ $end
$var wire 1 @ \Q[2]~output_o\ $end
$var wire 1 A \CLk~input_o\ $end
$var wire 1 B \CLk~inputclkctrl_outclk\ $end
$var wire 1 C \Cl~input_o\ $end
$var wire 1 D \Pr~input_o\ $end
$var wire 1 E \EN~input_o\ $end
$var wire 1 F \stage0|Qt~0_combout\ $end
$var wire 1 G \stage0|Qt~q\ $end
$var wire 1 H \Ud~input_o\ $end
$var wire 1 I \stage1|Qt~0_combout\ $end
$var wire 1 J \stage1|Qt~1_combout\ $end
$var wire 1 K \stage1|Qt~q\ $end
$var wire 1 L \comb~0_combout\ $end
$var wire 1 M \stage2|Qt~0_combout\ $end
$var wire 1 N \stage2|Qt~q\ $end
$upscope $end
$upscope $end
$enddefinitions $end
#0
$dumpvars
1!
0"
1#
1$
0(
0)
1*
x+
1,
1-
1.
1/
10
11
12
03
04
15
16
0>
0?
0@
0A
0B
1C
1D
1E
1F
0G
0H
0I
0J
0K
0L
0M
0N
0%
0&
0'
07
08
09
1:
1;
1<
0=
$end
#1000000
1"
14
1A
1=
1B
1G
0F
1I
1J
1>
19
1'
#2000000
0"
04
0A
0=
0B
#3000000
1"
14
1A
1=
1B
0G
1K
1F
1?
0>
18
09
0'
1&
#4000000
0"
04
0A
0=
0B
#5000000
1"
14
1A
1=
1B
1G
0F
0I
1L
1M
0J
1>
19
1'
#6000000
0"
04
0A
0=
0B
#7000000
1"
14
1A
1=
1B
0G
0K
1N
0M
1F
0L
1M
1@
0?
0>
17
08
09
0'
0&
1%
#8000000
0"
04
0A
0=
0B
#9000000
1"
14
1A
1=
1B
1G
0F
1I
1J
1>
19
1'
#10000000
0"
04
0A
0=
0B
#11000000
1"
14
1A
1=
1B
0G
1K
1F
1?
0>
18
09
0'
1&
#12000000
0"
04
0A
0=
0B
#13000000
1"
14
1A
1=
1B
1G
0F
0I
1L
0M
0J
1>
19
1'
#14000000
0"
04
0A
0=
0B
#15000000
1"
14
1A
1=
1B
0G
0K
0N
1M
1F
0L
0M
0@
0?
0>
07
08
09
0'
0&
0%
#16000000
0"
04
0A
0=
0B
#17000000
1"
14
1A
1=
1B
1G
0F
1I
1J
1>
19
1'
#18000000
0"
04
0A
0=
0B
#19000000
1"
14
1A
1=
1B
0G
1K
1F
1?
0>
18
09
0'
1&
#20000000
0"
04
0A
0=
0B
#21000000
1"
14
1A
1=
1B
1G
0F
0I
1L
1M
0J
1>
19
1'
#22000000
0"
04
0A
0=
0B
#23000000
1"
14
1A
1=
1B
0G
0K
1N
0M
1F
0L
1M
1@
0?
0>
17
08
09
0'
0&
1%
#24000000
0"
04
0A
0=
0B
#25000000
1"
14
1A
1=
1B
1G
0F
1I
1J
1>
19
1'
#26000000
0"
04
0A
0=
0B
#27000000
1"
14
1A
1=
1B
0G
1K
1F
1?
0>
18
09
0'
1&
#28000000
0"
04
0A
0=
0B
#29000000
1"
14
1A
1=
1B
1G
0F
0I
1L
0M
0J
1>
19
1'
#30000000
0"
04
0A
0=
0B
#31000000
1"
14
1A
1=
1B
0G
0K
0N
1M
1F
0L
0M
0@
0?
0>
07
08
09
0'
0&
0%
