Modulo2345Counter/simulation/qsim/Modulo2345Counter.msim.vcd
$comment
	File created using the following command:
		vcd file Modulo2345Counter.msim.vcd -direction
$end
$date
	Mon Nov 11 18:41:06 2024
$end
$version
	ModelSim Version 2020.1
$end
$timescale
	1ps
$end

$scope module t_ff_vhd_vec_tst $end
$var wire 1 ! CL $end
$var wire 1 " CLK $end
$var wire 1 # En $end
$var wire 1 $ PR $end
$var wire 1 % Q $end
$var wire 1 & Qn $end
$var wire 1 ' T $end
$var wire 1 ( UD $end

$scope module i1 $end
$var wire 1 ) gnd $end
$var wire 1 * vcc $end
$var wire 1 + unknown $end
$var wire 1 , devoe $end
$var wire 1 - devclrn $end
$var wire 1 . devpor $end
$var wire 1 / ww_devoe $end
$var wire 1 0 ww_devclrn $end
$var wire 1 1 ww_devpor $end
$var wire 1 2 ww_En $end
$var wire 1 3 ww_UD $end
$var wire 1 4 ww_CLK $end
$var wire 1 5 ww_T $end
$var wire 1 6 ww_CL $end
$var wire 1 7 ww_PR $end
$var wire 1 8 ww_Q $end
$var wire 1 9 ww_Qn $end
$var wire 1 : \Q~output_o\ $end
$var wire 1 ; \Qn~output_o\ $end
$var wire 1 < \En~input_o\ $end
$var wire 1 = \UD~input_o\ $end
$var wire 1 > \CLK~input_o\ $end
$var wire 1 ? \PR~input_o\ $end
$var wire 1 @ \T~input_o\ $end
$var wire 1 A \CL~input_o\ $end
$var wire 1 B \Qt~0_combout\ $end
$var wire 1 C \Qt~q\ $end
$var wire 1 D \Q~0_combout\ $end
$var wire 1 E \ALT_INV_Qt~q\ $end
$upscope $end
$upscope $end
$enddefinitions $end
#0
$dumpvars
1!
0"
1#
1$
0%
1&
1'
0(
0)
1*
x+
1,
1-
1.
1/
10
11
12
03
04
15
16
17
08
19
0:
1;
1<
0=
0>
1?
1@
1A
1B
0C
0D
1E
$end
#999000
0!
0#
0$
06
02
07
0?
0<
0A
0B
#1000000
1"
14
1>
#2000000
0"
04
0>
#3000000
1"
14
1>
#4000000
0"
04
0>
#5000000
1"
14
1>
#6000000
0"
04
0>
#7000000
1"
14
1>
#8000000
0"
04
0>
#9000000
1"
14
1>
#10000000
0"
04
0>
#11000000
1"
14
1>
#12000000
0"
04
0>
#13000000
1"
14
1>
#14000000
0"
04
0>
#15000000
1"
14
1>
#16000000
0"
04
0>
#17000000
1"
14
1>
#18000000
0"
04
0>
#19000000
1"
14
1>
#20000000
0"
04
0>
#21000000
1"
14
1>
#22000000
0"
04
0>
#23000000
1"
14
1>
#24000000
0"
04
0>
#25000000
1"
14
1>
#26000000
0"
04
0>
#27000000
1"
14
1>
#28000000
0"
04
0>
#29000000
1"
14
1>
#30000000
0"
04
0>
#31000000
1"
14
1>
